…
### 1.Code for reading in the dataset and/or processing the data
Read data
Convert date to POSIXt

```r
##Read Data
activity_data <- read.csv("activity.csv")
activity_data <- as_tibble(activity_data)
activity_data$date <- ymd(activity_data$date)
activity_data
```

```
## # A tibble: 17,568 × 3
##    steps       date interval
##    <int>     <date>    <int>
## 1     NA 2012-10-01        0
## 2     NA 2012-10-01        5
## 3     NA 2012-10-01       10
## 4     NA 2012-10-01       15
## 5     NA 2012-10-01       20
## 6     NA 2012-10-01       25
## 7     NA 2012-10-01       30
## 8     NA 2012-10-01       35
## 9     NA 2012-10-01       40
## 10    NA 2012-10-01       45
## # ... with 17,558 more rows
```

#What is mean total number of steps taken per day?

Calculate the total number of steps taken per day.


```r
daily_steps <- activity_data %>% group_by(date) %>% summarise(tot = sum(steps,na.rm=T))
daily_steps
```

```
## # A tibble: 61 × 2
##          date   tot
##        <date> <int>
## 1  2012-10-01     0
## 2  2012-10-02   126
## 3  2012-10-03 11352
## 4  2012-10-04 12116
## 5  2012-10-05 13294
## 6  2012-10-06 15420
## 7  2012-10-07 11015
## 8  2012-10-08     0
## 9  2012-10-09 12811
## 10 2012-10-10  9900
## # ... with 51 more rows
```
…
```
## [1] 10395
```

#What is the average daily activity pattern?

Make a time series plot (i.e. type = "l") of the 5-minute interval (x-axis) and the average number of steps taken, averaged across all days (y-axis).

```r
interval_steps <- activity_data %>% group_by(interval) %>% summarise(avg = mean(steps,na.rm=T))
interval_steps
```

```
## # A tibble: 288 × 2
##    interval       avg
##       <int>     <dbl>
## 1         0 1.7169811
## 2         5 0.3396226
## 3        10 0.1320755
## 4        15 0.1509434
## 5        20 0.0754717
## 6        25 2.0943396
## 7        30 0.5283019
## 8        35 0.8679245
## 9        40 0.0000000
## 10       45 1.4716981
## # ... with 278 more rows
```
…
```r
new <- activity_data
new$steps[is.na(new$steps)]<-0
```

```r
new_total_steps <- new %>% group_by(date) %>% summarise(tot = sum(steps))
new_total_steps
```

```
## # A tibble: 61 × 2
##          date   tot
##        <date> <dbl>
## 1  2012-10-01     0
## 2  2012-10-02   126
## 3  2012-10-03 11352
## 4  2012-10-04 12116
## 5  2012-10-05 13294
## 6  2012-10-06 15420
## 7  2012-10-07 11015
## 8  2012-10-08     0
## 9  2012-10-09 12811
## 10 2012-10-10  9900
## # ... with 51 more rows
```
…
#Are there differences in activity patterns between weekdays and weekends?
Create a new factor variable in the dataset with two levels - "weekday" and "weekend" indicating whether a given date is a weekday or weekend day.


```r
activity_pattern <- activity_data %>% mutate(wtype = ifelse(wday(date)==1 | wday(date)==7,"weekend","weekday"))
activity_pattern
```

```
## # A tibble: 17,568 × 4
##    steps       date interval   wtype
##    <int>     <date>    <int>   <chr>
## 1     NA 2012-10-01        0 weekday
## 2     NA 2012-10-01        5 weekday
## 3     NA 2012-10-01       10 weekday
## 4     NA 2012-10-01       15 weekday
## 5     NA 2012-10-01       20 weekday
## 6     NA 2012-10-01       25 weekday
## 7     NA 2012-10-01       30 weekday
## 8     NA 2012-10-01       35 weekday
## 9     NA 2012-10-01       40 weekday
## 10    NA 2012-10-01       45 weekday
## # ... with 17,558 more rows
```
…
